<svg width="14" height="14" viewBox="0 0 14 14" fill="none" xmlns="http://www.w3.org/2000/svg">
<path fill-rule="evenodd" clip-rule="evenodd" d="M5.02242 3H1.93046C0.864296 3 0 3.87884 0 4.96293V10.5555C0 11.6272 0.844734 12.4984 1.89413 12.5181L1.89461 13.8149C1.89463 13.8768 1.92507 13.9346 1.97573 13.9689C2.0264 14.0032 2.09058 14.0096 2.14677 13.9858L7.79527 12.5185L10.0695 12.5184C11.1357 12.5184 12 11.6396 12 10.5555V8.79297C11.6943 8.87943 11.3778 8.94012 11.053 8.97255V10.5555C11.053 11.1077 10.6127 11.5554 10.0695 11.5554H7.75828C7.73592 11.5554 7.71375 11.5596 7.69288 11.5678L2.91448 12.5822V11.7408C2.91448 11.6385 2.83296 11.5556 2.73239 11.5556L1.9305 11.5554C1.38736 11.5554 0.94702 11.1077 0.94702 10.5555V4.96293C0.94702 4.41066 1.38732 3.96295 1.93046 3.96295H5.01921C5.00649 3.81032 5 3.65592 5 3.5C5 3.33146 5.00758 3.16468 5.02242 3Z" fill="#CED5DC"/>
<path d="M11.6424 2.88309C11.6877 2.83779 11.7132 2.77635 11.7132 2.71228C11.7132 2.64821 11.6877 2.58676 11.6424 2.54146C11.5971 2.49615 11.5357 2.4707 11.4716 2.4707C11.4075 2.4707 11.3461 2.49615 11.3008 2.54146L10.024 3.81873L9.47099 3.26526C9.42568 3.21996 9.36424 3.19451 9.30017 3.19451C9.2361 3.19451 9.17465 3.21996 9.12935 3.26526C9.08405 3.31057 9.05859 3.37201 9.05859 3.43608C9.05859 3.50015 9.08405 3.5616 9.12935 3.6069L9.85315 4.3307C9.87557 4.35317 9.90219 4.371 9.9315 4.38316C9.96081 4.39533 9.99224 4.40159 10.024 4.40159C10.0557 4.40159 10.0871 4.39533 10.1164 4.38316C10.1458 4.371 10.1724 4.35317 10.1948 4.3307L11.6424 2.88309Z" fill="#CED5DC"/>
<path fill-rule="evenodd" clip-rule="evenodd" d="M10.5 6.125C11.9497 6.125 13.125 4.94975 13.125 3.5C13.125 2.05025 11.9497 0.875 10.5 0.875C9.05025 0.875 7.875 2.05025 7.875 3.5C7.875 4.94975 9.05025 6.125 10.5 6.125ZM10.5 7C12.433 7 14 5.433 14 3.5C14 1.567 12.433 0 10.5 0C8.567 0 7 1.567 7 3.5C7 5.433 8.567 7 10.5 7Z" fill="#CED5DC"/>
</svg>
