<svg width="15" height="15" viewBox="0 0 15 15" fill="none" xmlns="http://www.w3.org/2000/svg">
<path d="M5.45309 6.47947C5.45309 6.38909 5.41718 6.3024 5.35327 6.23849C5.28935 6.17458 5.20267 6.13867 5.11228 6.13867C5.0219 6.13867 4.93522 6.17458 4.8713 6.23849C4.80739 6.3024 4.77148 6.38909 4.77148 6.47947V10.2283C4.7715 10.2883 4.7874 10.3473 4.81756 10.3993C4.84773 10.4512 4.89109 10.4943 4.94325 10.5241L7.32885 11.8873C7.40714 11.9296 7.49887 11.9396 7.58444 11.9152C7.67001 11.8908 7.74263 11.8338 7.78678 11.7566C7.83093 11.6793 7.84311 11.5878 7.82072 11.5017C7.79832 11.4156 7.74312 11.3416 7.66692 11.2957L5.45309 10.0306V6.47947Z" fill="#CED5DC"/>
<path fill-rule="evenodd" clip-rule="evenodd" d="M5.45281 13.8514C6.59452 13.8514 7.68948 13.3979 8.49679 12.5905C9.30411 11.7832 9.75765 10.6883 9.75765 9.54656C9.75765 8.40484 9.30411 7.30989 8.49679 6.50257C7.68948 5.69525 6.59452 5.24171 5.45281 5.24171C4.31109 5.24171 3.21614 5.69525 2.40882 6.50257C1.6015 7.30989 1.14796 8.40484 1.14796 9.54656C1.14796 10.6883 1.6015 11.7832 2.40882 12.5905C3.21614 13.3979 4.31109 13.8514 5.45281 13.8514ZM9.30852 13.4023C8.28592 14.4249 6.89898 14.9994 5.45281 14.9994C4.00663 14.9994 2.61969 14.4249 1.59709 13.4023C0.574491 12.3797 0 10.9927 0 9.54656C0 8.10038 0.574491 6.71344 1.59709 5.69084C2.61969 4.66824 4.00663 4.09375 5.45281 4.09375C6.89898 4.09375 8.28592 4.66824 9.30852 5.69084C10.3311 6.71344 10.9056 8.10038 10.9056 9.54656C10.9056 10.9927 10.3311 12.3797 9.30852 13.4023Z" fill="#CED5DC"/>
<path fill-rule="evenodd" clip-rule="evenodd" d="M14.9999 12.9911V4.52009L10.4798 0H4.95522C4.42242 0 3.91144 0.211654 3.53469 0.588402C3.15794 0.965149 2.94629 1.47613 2.94629 2.00893V2.51738C3.27607 2.45006 3.61167 2.40573 3.95075 2.38536V2.00893C3.95075 1.74253 4.05658 1.48704 4.24495 1.29866C4.43333 1.11029 4.68882 1.00446 4.95522 1.00446H10.4798V3.01339C10.4798 3.41299 10.6385 3.79623 10.9211 4.07879C11.2036 4.36135 11.5869 4.52009 11.9865 4.52009H13.9954V12.9911C13.9954 13.2575 13.8896 13.513 13.7012 13.7013C13.5128 13.8897 13.2573 13.9955 12.9909 13.9955H11.082C10.9098 14.2134 10.7243 14.4222 10.526 14.6205C10.3937 14.7528 10.2569 14.8793 10.1157 15H12.9909C13.5237 15 14.0347 14.7883 14.4115 14.4116C14.7882 14.0349 14.9999 13.5239 14.9999 12.9911Z" fill="#CED5DC"/>
</svg>
