<svg width="15" height="15" viewBox="0 0 15 15" fill="none" xmlns="http://www.w3.org/2000/svg">
<g clip-path="url(#clip0_440_5987)">
<path fill-rule="evenodd" clip-rule="evenodd" d="M1 1H1.8125V13.1875H14V14H1V1Z" fill="#CED5DC"/>
<path fill-rule="evenodd" clip-rule="evenodd" d="M0.5 1C0.5 0.723858 0.723858 0.5 1 0.5H1.8125C2.08864 0.5 2.3125 0.723858 2.3125 1V12.6875H14C14.2761 12.6875 14.5 12.9114 14.5 13.1875V14C14.5 14.2761 14.2761 14.5 14 14.5H1C0.723858 14.5 0.5 14.2761 0.5 14V1ZM1.8125 13.1875V1H1V14H14V13.1875H1.8125Z" fill="#CED5DC"/>
<path d="M10.557 4.10058L10.5571 4.10055C10.6364 4.0034 10.7342 3.92278 10.8447 3.86343C10.9553 3.80408 11.0764 3.76712 11.2012 3.75469C11.326 3.74226 11.4521 3.75459 11.5721 3.79098C11.6921 3.82736 11.8038 3.88707 11.9007 3.96667L10.557 4.10058ZM10.557 4.10058L8.64318 6.44417L7.66789 5.46681L7.66777 5.46669C7.5703 5.36915 7.45257 5.2936 7.32303 5.2458C7.19358 5.19803 7.05531 5.17893 6.91776 5.18984C6.78022 5.20075 6.64669 5.24139 6.52637 5.30896C6.40608 5.3765 6.30178 5.46957 6.22092 5.58103L3.92628 8.74164L3.92628 8.74165C3.92145 8.7483 3.91673 8.75505 3.91214 8.7619C3.77449 8.96705 3.72162 9.21758 3.76456 9.46088C3.80749 9.70419 3.94292 9.92147 4.14254 10.067L4.26287 9.90193L4.14254 10.067C4.34218 10.2125 4.59042 10.2749 4.8351 10.241C5.07977 10.207 5.30168 10.0794 5.45423 9.88505L5.45424 9.88505C5.45941 9.87846 5.46445 9.87178 5.46936 9.86501M10.557 4.10058L11.9165 4.37229M11.6475 4.99372C11.6851 4.94762 11.7133 4.89456 11.7305 4.83753L11.8097 4.86144L11.6475 4.99372ZM11.6475 4.99372L11.5178 4.88781L11.6474 4.99386M11.6475 4.99372L11.6474 4.99386M11.6474 4.99386C11.6473 4.99397 11.6472 4.99408 11.6471 4.99419L11.647 4.99427L9.0657 8.15469L9.06563 8.15478L9.06536 8.15511C9.06533 8.15515 9.0653 8.15518 9.06527 8.15522C9.06527 8.15523 9.06526 8.15523 9.06525 8.15524C9.02513 8.20427 8.97515 8.24445 8.91893 8.27295C8.91875 8.27304 8.91858 8.27313 8.91841 8.27322C8.86186 8.30179 8.79998 8.31819 8.73677 8.32136C8.73674 8.32136 8.73672 8.32136 8.73669 8.32137C8.67345 8.32453 8.61024 8.3144 8.55112 8.29162C8.55097 8.29156 8.55082 8.2915 8.55066 8.29145L11.6474 4.99386ZM11.9165 4.37229L12.1369 4.25434C12.1961 4.36497 12.2329 4.48618 12.2453 4.61104C12.2577 4.73592 12.2454 4.86201 12.2091 4.98212C12.1729 5.102 12.1135 5.2136 12.0343 5.31056C12.0342 5.31059 12.0342 5.31062 12.0342 5.31065L9.4525 8.47153L9.45239 8.47166C9.36808 8.57475 9.26292 8.65934 9.1439 8.71948C9.02497 8.77958 8.89478 8.81407 8.76171 8.82074C8.62863 8.82741 8.49565 8.80609 8.37132 8.75817C8.24699 8.71026 8.13407 8.63681 8.03983 8.54258L8.03967 8.54242L7.10752 7.60864L5.46936 9.86501M11.9165 4.37229L12.1369 4.25434C12.0778 4.14393 11.9976 4.04619 11.9008 3.96673L11.9165 4.37229ZM5.46936 9.86501L5.26706 9.71814L5.46936 9.86501ZM11.4996 4.03023C11.5882 4.05708 11.6706 4.10115 11.7421 4.15992C11.8136 4.21857 11.8728 4.29073 11.9165 4.37229M8.67412 7.0664L8.67411 7.06639C8.67412 7.06638 8.67413 7.06638 8.67414 7.06638L8.67412 7.0664ZM7.05088 6.97602L7.05728 6.9672L7.06498 6.97492C7.0626 6.97503 7.06022 6.97519 7.05784 6.97537C7.05551 6.97556 7.05319 6.97577 7.05088 6.97602Z" fill="#CED5DC" stroke="#CED5DC" stroke-width="0.5" stroke-linejoin="round"/>
</g>
<defs>
<clipPath id="clip0_440_5987">
<rect width="15" height="15" fill="white"/>
</clipPath>
</defs>
</svg>
