<svg xmlns="http://www.w3.org/2000/svg" width="17.954" height="21.531" viewBox="0 0 17.954 21.531">
  <g id="Group_338" data-name="Group 338" transform="translate(-3088.95 -235.055)">
    <path id="Path_344" data-name="Path 344" d="M3104.747,254.441c0,.568,0,1.089,0,1.611,0,.429-.105.533-.526.533h-14.745c-.411,0-.525-.115-.525-.536q0-9.515,0-19.03c0-.421.108-.526.534-.528.531,0,1.061,0,1.622,0,0-.334,0-.631,0-.928,0-.395.113-.507.5-.507q4.891,0,9.783.008a.73.73,0,0,1,.465.19q2.441,2.414,4.855,4.855a.733.733,0,0,1,.189.468q.015,6.684.007,13.369c0,.36-.127.49-.49.495C3105.873,254.446,3105.333,254.441,3104.747,254.441Zm-12.911-.742h14.324V240.792h-.345q-2.046,0-4.093,0c-.48,0-.557-.076-.557-.552q0-2.06,0-4.12v-.32h-9.329Zm-2.137-16.485v18.627h14.313v-1.4h-12.245c-.582,0-.661-.079-.661-.662q0-8.088,0-16.176c0-.126-.013-.252-.02-.389Zm15.872,2.851-3.676-3.676a.5.5,0,0,0-.019.107c0,1.12,0,2.241,0,3.361,0,.2.084.23.254.229,1.074-.005,2.148,0,3.222,0C3105.426,240.081,3105.506,240.07,3105.571,240.064Z" fill="#fff"/>
    <path id="Path_345" data-name="Path 345" d="M3209.014,395.094h4.06a1.89,1.89,0,0,1,.28.009.33.33,0,0,1,.312.336.325.325,0,0,1-.289.355,1.454,1.454,0,0,1-.279.017h-8.177c-.046,0-.093,0-.14,0-.276-.014-.453-.161-.428-.375.029-.247.194-.342.432-.342Q3206.9,395.1,3209.014,395.094Z" transform="translate(-108.932 -151.067)" fill="#fff"/>
    <path id="Path_346" data-name="Path 346" d="M3209.33,434.088h-4.061c-.093,0-.212.03-.274-.015-.123-.089-.282-.212-.3-.338-.014-.1.146-.247.259-.333.069-.052.2-.035.3-.035q4.075,0,8.15,0c.414,0,.584.1.589.357s-.173.365-.574.365Z" transform="translate(-109.256 -187.191)" fill="#fff"/>
    <path id="Path_347" data-name="Path 347" d="M3208.989,471.825h4.089c.093,0,.208-.028.275.016.113.074.266.193.27.3a.558.558,0,0,1-.221.361c-.071.06-.214.045-.324.045q-4.089,0-8.178,0c-.037,0-.075,0-.112,0-.3-.015-.47-.159-.46-.38s.173-.339.461-.34Q3206.888,471.823,3208.989,471.825Z" transform="translate(-108.908 -223.488)" fill="#fff"/>
    <path id="Path_348" data-name="Path 348" d="M3208.961,510.879c-1.373,0-2.745,0-4.117,0a.732.732,0,0,1-.371-.081.332.332,0,0,1,.063-.587.939.939,0,0,1,.355-.05q4.089,0,8.179,0c.056,0,.112,0,.168,0,.257.02.417.161.4.373-.018.255-.184.35-.42.35h-4.258Z" transform="translate(-108.903 -259.675)" fill="#fff"/>
    <path id="Path_349" data-name="Path 349" d="M3209.066,357.33h-4.037c-.093,0-.187,0-.28-.009a.319.319,0,0,1-.315-.331.331.331,0,0,1,.318-.36,1.527,1.527,0,0,1,.2-.009h8.271c.093,0,.218-.021.272.028.105.1.233.235.235.357,0,.1-.15.23-.263.3-.075.048-.2.021-.3.022Z" transform="translate(-109.008 -114.747)" fill="#fff"/>
    <path id="Path_350" data-name="Path 350" d="M3167.354,292.768c.336,0,.673-.007,1.009,0,.286.007.409.13.412.417q.009,1.009,0,2.018a.386.386,0,0,1-.44.429q-.995.011-1.99,0c-.308,0-.433-.139-.435-.457q-.006-.981,0-1.962c0-.339.112-.443.463-.448.327,0,.654,0,.981,0Zm.683.727h-1.393v1.4h1.393Z" transform="translate(-72.642 -54.476)" fill="#fff"/>
    <path id="Path_351" data-name="Path 351" d="M3166.783,395.775a3.225,3.225,0,0,1-.363,0,.334.334,0,0,1-.337-.369.325.325,0,0,1,.342-.334,7.145,7.145,0,0,1,.727,0,.32.32,0,0,1,.335.338.332.332,0,0,1-.34.365A3.534,3.534,0,0,1,3166.783,395.775Z" transform="translate(-72.808 -151.035)" fill="#fff"/>
    <path id="Path_352" data-name="Path 352" d="M3166.779,510.165a2.627,2.627,0,0,1,.363,0,.34.34,0,0,1,.339.37.335.335,0,0,1-.364.343c-.224.01-.448.009-.672,0a.339.339,0,0,1-.369-.34.342.342,0,0,1,.338-.372A2.476,2.476,0,0,1,3166.779,510.165Z" transform="translate(-72.802 -259.681)" fill="#fff"/>
    <path id="Path_353" data-name="Path 353" d="M3166.777,434.268c-.121,0-.243.009-.363,0a.331.331,0,0,1-.335-.342.3.3,0,0,1,.291-.347,5.584,5.584,0,0,1,.807,0,.311.311,0,0,1,.306.362.33.33,0,0,1-.342.334c-.121.009-.242,0-.364,0Z" transform="translate(-72.804 -187.376)" fill="#fff"/>
    <path id="Path_354" data-name="Path 354" d="M3167.1,471.824a.945.945,0,0,1,.386.011c.122.061.272.2.281.312a.42.42,0,0,1-.228.342,3.044,3.044,0,0,1-.911,0,.421.421,0,0,1-.228-.343c.01-.114.163-.253.286-.309A1.084,1.084,0,0,1,3167.1,471.824Z" transform="translate(-73.11 -223.48)" fill="#fff"/>
    <path id="Path_355" data-name="Path 355" d="M3166.764,357.405a.942.942,0,0,1-.385-.011.579.579,0,0,1-.286-.315.282.282,0,0,1,.269-.354,5.173,5.173,0,0,1,.836,0,.344.344,0,0,1-.016.681c-.138.013-.279,0-.418,0Z" transform="translate(-72.809 -114.833)" fill="#fff"/>
  </g>
</svg>
